[
  {
    "count": 19,
    "totalPages": 4,
    "pageSize": 6,
    "currentPage": 1,
    "data": [
      {
        "id": 1130037,
        "name": "帆布丝羽绒多用坐垫",
        "list_pic_url": "http://yanxuan.nosdn.127.net/19ecd7c6f6f31219cf75117238d95139.png",
        "retail_price": 39
      },
      {
        "id": 1115028,
        "name": "日式色织水洗棉条纹四件套",
        "list_pic_url": "http://yanxuan.nosdn.127.net/3d0045e8f43439c7004fae052b2162ed.png",
        "retail_price": 299
      },
      {
        "id": 1110007,
        "name": "日式色织水洗棉格纹四件套 新款",
        "list_pic_url": "http://yanxuan.nosdn.127.net/deeb55bb45f94cb236a47d1264e883b8.png",
        "retail_price": 299
      },
      {
        "id": 1110004,
        "name": "全棉针织纯色四件套",
        "list_pic_url": "http://yanxuan.nosdn.127.net/1ffd5831e63027715445f74a28f8c4ed.png",
        "retail_price": 299
      },
      {
        "id": 1110003,
        "name": "全棉针织条纹四件套 新款",
        "list_pic_url": "http://yanxuan.nosdn.127.net/72dfb4bfc1cd1b834c064a9d1d40627d.png",
        "retail_price": 299
      },
      {
        "id": 1109008,
        "name": "云端沙发组合",
        "list_pic_url": "http://yanxuan.nosdn.127.net/c5be2604c0e4186a4e7079feeb742cee.png",
        "retail_price": 3999
      }
    ],
    "filterCategory": [
      {
        "id": 0,
        "name": "全部",
        "checked": true
      },
      {
        "id": 1005000,
        "name": "居家",
        "checked": false
      }
    ],
    "goodsList": [
      {
        "id": 1130037,
        "name": "帆布丝羽绒多用坐垫",
        "list_pic_url": "http://yanxuan.nosdn.127.net/19ecd7c6f6f31219cf75117238d95139.png",
        "retail_price": 39
      },
      {
        "id": 1115028,
        "name": "日式色织水洗棉条纹四件套",
        "list_pic_url": "http://yanxuan.nosdn.127.net/3d0045e8f43439c7004fae052b2162ed.png",
        "retail_price": 299
      },
      {
        "id": 1110007,
        "name": "日式色织水洗棉格纹四件套 新款",
        "list_pic_url": "http://yanxuan.nosdn.127.net/deeb55bb45f94cb236a47d1264e883b8.png",
        "retail_price": 299
      },
      {
        "id": 1110004,
        "name": "全棉针织纯色四件套",
        "list_pic_url": "http://yanxuan.nosdn.127.net/1ffd5831e63027715445f74a28f8c4ed.png",
        "retail_price": 299
      },
      {
        "id": 1110003,
        "name": "全棉针织条纹四件套 新款",
        "list_pic_url": "http://yanxuan.nosdn.127.net/72dfb4bfc1cd1b834c064a9d1d40627d.png",
        "retail_price": 299
      },
      {
        "id": 1109008,
        "name": "云端沙发组合",
        "list_pic_url": "http://yanxuan.nosdn.127.net/c5be2604c0e4186a4e7079feeb742cee.png",
        "retail_price": 3999
      }
    ]
  },
  {
    "brand": {
      "id": 1001000,
      "name": "MUJI制造商",
      "list_pic_url": "http://yanxuan.nosdn.127.net/1541445967645114dd75f6b0edc4762d.png",
      "simple_desc": "严选精选了MUJI制造商和生产原料，\n用几乎零利润的价格，剔除品牌溢价，\n让用户享受原品牌的品质生活。",
      "pic_url": "http://yanxuan.nosdn.127.net/4ea3f1e60dd77c45c218e503d721a1ed.jpg",
      "sort_order": 2,
      "is_show": 1,
      "floor_price": 12.9,
      "app_list_pic_url": "http://yanxuan.nosdn.127.net/1541445967645114dd75f6b0edc4762d.png",
      "is_new": 1,
      "new_pic_url": "http://yanxuan.nosdn.127.net/4ea3f1e60dd77c45c218e503d721a1ed.jpg",
      "new_sort_order": 2
    }
  }
]