{
  "code": "200",
  "data": {
    "title": {
      "code": "200",
      "data": {
        "goodCmtRate": "99.8% 好评",
        "star": 5,
        "defGoodCmtCnt": 109772
      }
    },
    "pagination": {
      "page": 1,
      "size": 10,
      "totalPage": 4780,
      "total": 47799,
      "lastPage": false
    },
    "result": [
      {
        "skuInfo": [
          "50克"
        ],
        "frontUserName": "蜗****",
        "content": "网易出品，必属精品，先赞后看，已成习惯。网易确实是用心在做产品，大爱。",
        "createTime": 1564730853958,
        "picList": [
          "https://yanxuan.nosdn.127.net/fa025e45224301bd25219a2891d453b9.jpg"
        ],
        "frontUserAvatar": "https://yanxuan.nosdn.127.net/64adb099fe58ea3cb00dee52e2c1e4c2",
        "commentReplyVO": null,
        "memberLevel": 4,
        "appendCommentVO": null,
        "star": 5,
        "itemId": 1023014,
        "commentItemTagVO": null
      },
      {
        "skuInfo": [
          "50克"
        ],
        "frontUserName": "冷****暴",
        "content": "好吃好吃关键是免费领取的发货也快网易就是棒，家里有需要买的东西第一时间都会想到这里!",
        "createTime": 1575516187055,
        "picList": [
          "https://yanxuan.nosdn.127.net/cf53b09dc4f801350ada77df87ea5339.jpg"
        ],
        "frontUserAvatar": "http://thirdqq.qlogo.cn/qqapp/101330628/3F075EF352B1CBAFBDD4F42A0B86B8FC/100",
        "commentReplyVO": null,
        "memberLevel": 2,
        "appendCommentVO": null,
        "star": 5,
        "itemId": 1023014,
        "commentItemTagVO": null
      },
      {
        "skuInfo": [
          "50克"
        ],
        "frontUserName": "u****s",
        "content": "小小包，小零嘴，一下就吃完，罪恶感较低～哈哈！味道还行，可以微波炉加热一下更好吃",
        "createTime": 1564122300782,
        "picList": [
          "https://yanxuan.nosdn.127.net/ce368410e3fcbf9378c0a17f2a9893cf.jpg"
        ],
        "frontUserAvatar": "https://yanxuan.nosdn.127.net/0d078c3c1117c43fa0386f5b985f0051.jpg",
        "commentReplyVO": null,
        "memberLevel": 5,
        "appendCommentVO": null,
        "star": 5,
        "itemId": 1023014,
        "commentItemTagVO": null
      },
      {
        "skuInfo": [
          "50克"
        ],
        "frontUserName": "1****1",
        "content": "栗子新鲜 软些微甜 一袋里六粒",
        "createTime": 1567214361158,
        "picList": [
          "https://yanxuan.nosdn.127.net/8809d3942ffa3b2f13bf1799434f972b.jpg"
        ],
        "frontUserAvatar": null,
        "commentReplyVO": null,
        "memberLevel": 3,
        "appendCommentVO": null,
        "star": 5,
        "itemId": 1023014,
        "commentItemTagVO": null
      },
      {
        "skuInfo": [
          "50克"
        ],
        "frontUserName": "葡****桃",
        "content": "哇咔咔！凑单首选的吖！大人孩子都爱吃！一入严选深似海！",
        "createTime": 1576289579353,
        "picList": [
          "https://yanxuan.nosdn.127.net/f203b21dc1338b0be0b0aad5f313427e.jpg"
        ],
        "frontUserAvatar": "https://yanxuan.nosdn.127.net/07b994238e2b1cd2e3891c016370f111",
        "commentReplyVO": null,
        "memberLevel": 5,
        "appendCommentVO": null,
        "star": 5,
        "itemId": 1023014,
        "commentItemTagVO": null
      },
      {
        "skuInfo": [
          "50克"
        ],
        "frontUserName": "苦****～",
        "content": "一如既往的好吃，每次必选，如果再便宜点就好了，希望严选继续保持高品质商品",
        "createTime": 1555029376846,
        "picList": [
          "https://yanxuan.nosdn.127.net/6905cf865bee1a002ef270f480f1d45e.jpg",
          "https://yanxuan.nosdn.127.net/835f23c3978fe64e44c5daa8f9ebd4bb.jpg"
        ],
        "frontUserAvatar": "http://thirdqq.qlogo.cn/qqapp/101330628/9423FFF93AB41B0D9906A6BCB632DE5D/100",
        "commentReplyVO": null,
        "memberLevel": 5,
        "appendCommentVO": null,
        "star": 5,
        "itemId": 1023014,
        "commentItemTagVO": null
      },
      {
        "skuInfo": [
          "3袋装作废"
        ],
        "frontUserName": "u****s",
        "content": "不错，好吃。小小包，适合当零食，感觉也不会发胖。对身体有益。而且很方便。买了好久才来评价，其实一早就吃完啦～～",
        "createTime": 1562156049202,
        "picList": [
          "https://yanxuan.nosdn.127.net/b39fda7fa066b5937489b8008adf90ee.jpg"
        ],
        "frontUserAvatar": "https://yanxuan.nosdn.127.net/0d078c3c1117c43fa0386f5b985f0051.jpg",
        "commentReplyVO": null,
        "memberLevel": 5,
        "appendCommentVO": null,
        "star": 5,
        "itemId": 1023014,
        "commentItemTagVO": null
      },
      {
        "skuInfo": [
          "50克"
        ],
        "frontUserName": "1****5",
        "content": "太好吃了",
        "createTime": 1572441601162,
        "picList": [
          "https://yanxuan.nosdn.127.net/6051e863603c7d5b045b300f95d953c1.jpg"
        ],
        "frontUserAvatar": null,
        "commentReplyVO": null,
        "memberLevel": 6,
        "appendCommentVO": null,
        "star": 5,
        "itemId": 1023014,
        "commentItemTagVO": null
      },
      {
        "skuInfo": [
          "50克"
        ],
        "frontUserName": "软****兔",
        "content": "不错呢 挺好吃的。 要了好几次了，很好吃栗子。可惜就是怕会长胖呢。不错不错呢。支持赞一个",
        "createTime": 1578795591875,
        "picList": [
          "https://yanxuan.nosdn.127.net/147f2f04a2de0647d30f475af045f050.jpg",
          "https://yanxuan.nosdn.127.net/f4723b32a56985dbd8b28679144f058d.jpg"
        ],
        "frontUserAvatar": "https://yanxuan.nosdn.127.net/d71b7f5b054922fa1cddbae59ab62ac3",
        "commentReplyVO": null,
        "memberLevel": 1,
        "appendCommentVO": null,
        "star": 5,
        "itemId": 1023014,
        "commentItemTagVO": null
      },
      {
        "skuInfo": [
          "50克"
        ],
        "frontUserName": "y****2",
        "content": "非常好吃的一款零食，百吃不厌，日期很新鲜，严选的品质一如既往的好，很喜欢。",
        "createTime": 1578723922390,
        "picList": [
          "https://yanxuan.nosdn.127.net/d6c5195d58e4d0926b30829d52519750.jpg",
          "https://yanxuan.nosdn.127.net/c60d5b36de97ae432e57c636ea5d5791.jpg",
          "https://yanxuan.nosdn.127.net/d93ec2081c40ab8364cebd0a5b9d600b.jpg"
        ],
        "frontUserAvatar": "https://yanxuan.nosdn.127.net/80d6d4735e7a7e259a26dc619413677b.jpg",
        "commentReplyVO": null,
        "memberLevel": 5,
        "appendCommentVO": null,
        "star": 5,
        "itemId": 1023014,
        "commentItemTagVO": null
      }
    ],
    "relatedItemCommentTag": null
  }
}


