{
  "count": 57,
  "totalPages": 12,
  "pageSize": 5,
  "currentPage": 1,
  "data": [
    {
      "content": "是记忆棉 很满意",
      "type_id": 1,
      "value_id": 314,
      "id": 994,
      "add_time": "2017-05-15 10:06:01",
      "user_info": {},
      "pic_list": []
    },
    {
      "content": "很好的东西",
      "type_id": 1,
      "value_id": 314,
      "id": 995,
      "add_time": "2017-05-15 23:56:28",
      "user_info": {},
      "pic_list": []
    },
    {
      "content": "很舒服，有没有那么的软，不错！",
      "type_id": 1,
      "value_id": 314,
      "id": 996,
      "add_time": "2017-04-16 11:12:46",
      "user_info": {},
      "pic_list": []
    },
    {
      "content": "确实舒服，不过夏天会不会热啊？",
      "type_id": 1,
      "value_id": 314,
      "id": 997,
      "add_time": "2017-05-14 07:23:56",
      "user_info": {},
      "pic_list": []
    },
    {
      "content": "有点过软。等到夏季，上面直接铺凉席的话，不知道透气性会怎样？",
      "type_id": 1,
      "value_id": 314,
      "id": 998,
      "add_time": "2016-12-01 17:58:54",
      "user_info": {},
      "pic_list": []
    }
  ]
}